Spatial Econometrics
…
## The following objects are masked from 'package:base':
## 
##     intersect, setdiff, setequal, union

df3 <- df_final %>% 
  dplyr::mutate(pred = predict(fit_rent, .)) %>%
  dplyr::mutate(Czynsz_filled = ifelse(is.na(Czynsz), pred, Czynsz))

# See the result
df3 %>% filter(is.na(Czynsz_filled))

## # A tibble: 2,377 x 34
##    District Total_price Days_from_initi Czynsz `Forma wasnoc Pitro `Rodzaj zabudow `Stan wykoczen
##    <fct>          <dbl>            <int>  <dbl> <fct>            <fct>  <fct>            <fct>           
##  1 Biao      365065               14     NA <NA>             1      <NA>             <NA>            
##  2 oliborz      420000                0     NA <NA>             > 10   <NA>             <NA>            
##  3 rdmie     1015000                3     NA <NA>             2      kamienica        <NA>            
##  4 Mokotw       649000               90     NA <NA>             parter <NA>             <NA>            
##  5 Praga-P      979700              120     NA spdzielcze w 1      <NA>             do zamieszkania 
##  6 Wilanw       585300               18     NA <NA>             4      <NA>             <NA>            
##  7 Mokotw       592895                9     NA <NA>             2      <NA>             <NA>            
##  8 Wola          939000               21     NA <NA>             2      kamienica        <NA>            
##  9 Praga-P      998000               30     NA pena wasno   1      <NA>             do zamieszkania 
## 10 Targwek     2100000               23     NA <NA>             2      apartamentowiec  <NA>            
## #  with 2,367 more rows, and 26 more variables: `Liczba piter` <dbl>, Rynek <fct>, Powierzchnia <dbl>, `Liczba
## #   pokoi` <fct>, `Rok budowy` <dbl>, Ogrzewanie <fct>, Lat <dbl>, Lon <dbl>, Distance_to_PKIN_in_km <dbl>,
## #   Time_to_PKIN_in_minutes <dbl>, Price_per_sqm <dbl>, Population_density <dbl>,
## #   `Vistula_side(1_for_west_0_for_east)` <fct>, Life_quality <dbl>, Family_friendliness <dbl>,
## #   Single_people_friendliness <dbl>, Senior_people_friendliness <dbl>, Distance_to_subway_in_km <dbl>,
## #   liczba_pieter_binned <fct>, building_age <dbl>, building_age_binned <fct>,
## #   Days_from_initial_announcement_binned <fct>, Pitro_binned <fct>, liczba_pokoi_binned <fct>, pred <dbl>,
## #   Czynsz_filled <dbl>
…
